{
  "files": {
    "main.css": "/static/css/main.1492fb1f.chunk.css",
    "main.js": "/static/js/main.0f16a40a.chunk.js",
    "runtime-main.js": "/static/js/runtime-main.2421b1ce.js",
    "static/css/2.f4b1c6cd.chunk.css": "/static/css/2.f4b1c6cd.chunk.css",
    "static/js/2.ea72b1db.chunk.js": "/static/js/2.ea72b1db.chunk.js",
    "static/js/3.17c2a96c.chunk.js": "/static/js/3.17c2a96c.chunk.js",
    "static/js/4.8acfaa37.chunk.js": "/static/js/4.8acfaa37.chunk.js",
    "index.html": "/index.html",
    "static/js/2.ea72b1db.chunk.js.LICENSE.txt": "/static/js/2.ea72b1db.chunk.js.LICENSE.txt",
    "static/js/3.17c2a96c.chunk.js.LICENSE.txt": "/static/js/3.17c2a96c.chunk.js.LICENSE.txt",
    "static/js/4.8acfaa37.chunk.js.LICENSE.txt": "/static/js/4.8acfaa37.chunk.js.LICENSE.txt",
    "static/media/default.003f90b3.less": "/static/media/default.003f90b3.less",
    "static/media/getFetch.cjs": "/static/media/getFetch.5fde86e3.cjs",
    "static/media/index.512735b3.less": "/static/media/index.512735b3.less",
    "static/media/user-circle.b0de0a8b.svg": "/static/media/user-circle.b0de0a8b.svg"
  },
  "entrypoints": [
    "static/js/runtime-main.2421b1ce.js",
    "static/css/2.f4b1c6cd.chunk.css",
    "static/js/2.ea72b1db.chunk.js",
    "static/css/main.1492fb1f.chunk.css",
    "static/js/main.0f16a40a.chunk.js"
  ]
}